100,>1) *General Current Information,,,
101,Ticker,TradingSymbol,,
102,End of Period,DocumentPeriodEndDate,,
103,Share Price (Period End),,,[SharePrice]
104,Number of Shares Outstanding,EntityCommonStockSharesOutstanding,CommonStockSharesOutstanding,
200,>2) Income Statement,,,
201,Revenue,Revenues,SalesRevenueNet,
202,Revenue from Sales of Goods,SalesRevenueGoodsNet,,
203,Revenue from Services,SalesRevenueServicesNet,RefiningAndMarketingRevenue,
221,Revenue from Interest,InterestAndDividendIncomeOperating,,
222,Revenue Noninterest,NoninterestIncome,,
204,Cost of Sales,CostOfRevenue,CostOfGoodsAndServicesSold; CostOfGoodsSold; CostOfGoodsSoldExcludingDepreciationDepletionAndAmortization,
205,Gross Profit,GrossProfit,,
206,"Selling, General & Administrative Expense",SellingGeneralAndAdministrativeExpense,,
207,Research & Development Expense,ResearchAndDevelopmentExpense,ResearchAndDevelopment,
208,Total Operating Expenses,OperatingExpenses,,
209,Operating Profit,OperatingIncomeLoss,OperatingIncome,
210,Interest Income,InterestAndOtherIncome,InterestIncome,
211,Interest Expense,InterestExpense,,
212,Interest Income & Expense,InterestIncomeAndExpenseNet,,
213,Earnings Before Taxes,IncomeLossFromContinuingOperationsBeforeIncomeTaxesExtraordinaryItemsNoncontrollingInterest,EarningsBeforeTaxes; IncomeLossFromContinuingOperationsBeforeIncomeTaxesMinorityInterestAndIncomeLossFromEquityMethodInvestments,
214,Income Taxes,IncomeTaxExpenseBenefit,,
215,Net Income,NetIncomeLoss,IncomeLossFromContinuingOperations; NetIncomeLossAvailableToCommonStockholdersBasic,
223,Net Income including Non-controlling interest,ProfitLoss,,
216,EPS Basic,EarningsPerShareBasic,,
217,EPS Diluted (or Basic),EarningsPerShareDiluted,EarningsPerShareBasicAndDiluted,
218,Dividends declared per common share,CommonStockDividendsPerShareDeclared,,
219,Average Number of Basic Shares Outstanding,WeightedAverageNumberOfSharesOutstandingBasic,,
220,Average Number of Basic&Diluted Shares Outstanding,WeightedAverageNumberOfSharesOutstandingBasicAndDiluted,,
300,>3) Balance Sheet,,,
301,Cash & Cash Equivalents,CashAndCashEquivalentsAtCarryingValue,Cash,
302,Restricted Cash & Cash Equivalents,RestrictedCashAndCashEquivalentsAtCarryingValue,,
303,Accounts Receivable,AccountsReceivableNetCurrent,AccountsReceivable; AccountsAndNotesReceivableNet; AccountsAndOtherReceivablesNetCurrent,
304,Inventory,InventoryNet,Inventory,
305,Prepaid Expense & Other Current Assets,PrepaidExpenseAndOtherAssetsCurrent,OtherAssetsCurrent,
306,Current Assets,AssetsCurrent,,
307,"Net of Property, Plant & Equipment",PropertyPlantAndEquipmentNet,,
308,Noncurrent restricted Cash & Cash Equivalents,RestrictedCashAndCashEquivalentsNoncurrent,,
309,Goodwill,Goodwill,,
310,Other Noncurrent Assets,OtherAssetsNoncurrent,,
311,Assets,Assets,,
312,Accounts Payable,AccountsPayableCurrent,,
313,Accrued Liabilities,AccruedLiabilitiesCurrent,,
314,Current Long-Term Debt,LongTermDebtCurrent,LongTermDebtAndCapitalLeaseObligationsCurrent; LinesOfCreditCurrent; NotesAndLoansPayableCurrent,
315,Current Liabilities,LiabilitiesCurrent,,
316,Noncurrent Long-Term Debt,LongTermDebtNoncurrent,LongTermDebtAndCapitalLeaseObligations; SecuredLongTermDebt; LongTermNotesAndLoans,
317,Noncurrent Liabilities,LiabilitiesNoncurrent,,
318,"Liabilities, Total",Liabilities,,
319,Stockholders Equity,StockholdersEquityIncludingPortionAttributableToNoncontrollingInterest,StockholdersEquity,
320,Liabilities & Equity,LiabilitiesAndStockholdersEquity,,
400,>4) Cash Flow,,,
401,Depreciation & Amortization,DepreciationDepletionAndAmortization,DepreciationAmortization,
402,Provision For Doubtful Accounts,ProvisionForDoubtfulAccounts,,
403,Deferred Income Tax,DeferredIncomeTaxExpenseBenefit,,
404,(Gain) loss on disposal or impairment of assets,GainLossOnSalesOfAssetsAndAssetImpairmentCharges,,
405,Share Based Compensation,ShareBasedCompensation,,
406,Change in Receivables,IncreaseDecreaseInAccountsAndOtherReceivables,,
407,Change in Inventories,IncreaseDecreaseInInventories,,
408,Change in Prepaid Expenses,IncreaseDecreaseInPrepaidDeferredExpenseAndOtherAssets,,
409,Change in Payables,IncreaseDecreaseInAccountsPayable,,
410,Change in Accrued Liabilities,IncreaseDecreaseInAccruedLiabilities,,
411,Cash Flow From Operations (CFO),NetCashProvidedByUsedInOperatingActivitiesContinuingOperations,NetCashProvidedByUsedInOperatingActivities,
412,CAPEX,PaymentsToAcquireProductiveAssets,PaymentsToAcquirePropertyPlantAndEquipment,
413,Cash Flow from Investing (CFI),NetCashProvidedByUsedInInvestingActivitiesContinuingOperations,NetCashProvidedByUsedInInvestingActivities,
414,Payments Of Dividends,PaymentsOfDividends,PaymentsOfDividendsCommonStock,
415,Purchase of common stock,PaymentsForRepurchaseOfCommonStock,,
416,Cash Flow from Financing (CFF),NetCashProvidedByUsedInFinancingActivitiesContinuingOperations,NetCashProvidedByUsedInFinancingActivities,
417,"Cash & Cash Equivalents, Change",CashAndCashEquivalentsPeriodIncreaseDecrease,NetCashProvidedByUsedInContinuingOperations; CashPeriodIncreaseDecrease; PeriodIncreaseDecreaseInCashAndCashEquivalents,
418,Interest Paid,InterestPaid,,
419,Income Taxes Paid,IncomeTaxesPaid,,
500,>5) Fundamental measures,,,
501,Total Revenue (Any type),,,"IFERROR([201],IFERROR([202],0)+IFERROR([203],0)+IFERROR([221],0)+IFERROR([222],0))"
502,Effective Tax Rate,,,[214] / [213]
503,Total Debt,,,"IFERROR([314],0) + IFERROR([316],0)"
504,Market Cap,,,[SharePrice]*[104]
505,Enterprise Value,,,"[SharePrice]*[104]+IFERROR([318],IFERROR([315],0)+IFERROR([317],0))-[301]"
506,Total Net Income,,,"IFERROR([223],[215])"
600,>6) Price Ratios,,,
601,Price/Earning Ratio (P/E),,,[SharePrice] / [216]
602,Price/Sales Ratio (P/S),,,[SharePrice] /( [501]/ [104])
603,Price/Book Value Ratio (P/B),,,[SharePrice] /( [319]/ [104])
700,>7) Profitability Ratios,,,
701,Gross Profit Margin,,,"[205] / IFERROR([201],IFERROR([202],0)+IFERROR([203],0))"
702,Profit Margin,,,"[215] / IFERROR([201],IFERROR([202],0)+IFERROR([203],0))"
703,Test recursive parameter,,,[702] * [701]
